{
	"info": {
		"_postman_id": "cc2f0c1b-a6ca-4a81-86ca-860c9e38cd1c",
		"name": "Api test",
		"schema": "https://schema.getpostman.com/json/collection/v2.1.0/collection.json",
		"_exporter_id": "3872629"
	},
	"item": [
		{
			"name": "Should create user",
			"event": [
				{
					"listen": "test",
					"script": {
						"exec": [
							"pm.environment.set(\"username\", pm.response.json().email);",
							"",
							"pm.test(\"Status tests\", function () {",
							"    pm.response.to.have.status(201);",
							"});"
						],
						"type": "text/javascript"
					}
				}
			],
			"request": {
				"method": "POST",
				"header": [
					{
						"key": "Content-Type",
						"value": "application/json",
						"type": "text"
					}
				],
				"body": {
					"mode": "raw",
					"raw": "{\n    \"email\": \"{{$randomEmail}}\",\n    \"password\": \"password\"\n}"
				},
				"url": {
					"raw": "{{url}}/api/users",
					"host": [
						"{{url}}"
					],
					"path": [
						"api",
						"users"
					]
				}
			},
			"response": []
		},
		{
			"name": "Should not create user",
			"event": [
				{
					"listen": "test",
					"script": {
						"exec": [
							"pm.test(\"Status tests\", function () {",
							"    pm.response.to.have.status(500);",
							"});"
						],
						"type": "text/javascript"
					}
				}
			],
			"request": {
				"method": "POST",
				"header": [
					{
						"key": "Content-Type",
						"value": "application/json",
						"type": "text"
					}
				],
				"body": {
					"mode": "raw",
					"raw": "{\n    \"email\": \"{{username}}\",\n    \"password\": \"password\"\n}"
				},
				"url": {
					"raw": "{{url}}/api/users",
					"host": [
						"{{url}}"
					],
					"path": [
						"api",
						"users"
					]
				}
			},
			"response": []
		},
		{
			"name": "Should create token",
			"event": [
				{
					"listen": "test",
					"script": {
						"exec": [
							"pm.environment.set(\"token\", pm.response.json().token);",
							"",
							"pm.test(\"Status code is 200\", function () {",
							"    pm.response.to.have.status(200);",
							"});"
						],
						"type": "text/javascript"
					}
				}
			],
			"request": {
				"method": "POST",
				"header": [
					{
						"key": "Content-Type",
						"value": "application/json",
						"type": "text"
					}
				],
				"body": {
					"mode": "raw",
					"raw": "{\n    \"username\": \"{{username}}\",\n    \"password\": \"password\"\n}"
				},
				"url": {
					"raw": "{{url}}/api/login_check",
					"host": [
						"{{url}}"
					],
					"path": [
						"api",
						"login_check"
					]
				}
			},
			"response": []
		},
		{
			"name": "Should create demo",
			"event": [
				{
					"listen": "test",
					"script": {
						"exec": [
							"",
							"pm.environment.set(\"lastDemo\", pm.response.json().id);",
							"",
							"pm.test(\"Status code is 201\", function () {",
							"    pm.response.to.have.status(201);",
							"});"
						],
						"type": "text/javascript"
					}
				}
			],
			"request": {
				"auth": {
					"type": "bearer",
					"bearer": [
						{
							"key": "token",
							"value": "{{token}}",
							"type": "string"
						}
					]
				},
				"method": "POST",
				"header": [
					{
						"key": "Content-Type",
						"value": "application/json",
						"type": "text"
					}
				],
				"body": {
					"mode": "raw",
					"raw": "{\n    \"number\": {{$randomInt}},\n    \"name\": \"{{$randomLoremWord}}\",\n    \"description\": \"{{$randomLoremText}}\"\n}"
				},
				"url": {
					"raw": "{{url}}/api/demos",
					"host": [
						"{{url}}"
					],
					"path": [
						"api",
						"demos"
					]
				}
			},
			"response": []
		},
		{
			"name": "Should edit demo",
			"event": [
				{
					"listen": "test",
					"script": {
						"exec": [
							"pm.test(\"Status code is 200\", function () {",
							"    pm.response.to.have.status(200);",
							"});",
							"",
							"pm.test(\"Check values\", function () {",
							"    var jsonData = pm.response.json();",
							"    pm.expect(jsonData.number).to.eql(1000);",
							"    pm.expect(jsonData.name).to.eql(\"demo 1\");",
							"    pm.expect(jsonData.description).to.eql(\"description de la demo 1\");",
							"});"
						],
						"type": "text/javascript"
					}
				}
			],
			"request": {
				"auth": {
					"type": "bearer",
					"bearer": [
						{
							"key": "token",
							"value": "{{token}}",
							"type": "string"
						}
					]
				},
				"method": "PUT",
				"header": [
					{
						"key": "Content-Type",
						"value": "application/json",
						"type": "text"
					}
				],
				"body": {
					"mode": "raw",
					"raw": "{\n    \"number\": 1000,\n    \"name\": \"demo 1\",\n    \"description\": \"description de la demo 1\"\n}"
				},
				"url": {
					"raw": "{{url}}/api/demos/{{lastDemo}}",
					"host": [
						"{{url}}"
					],
					"path": [
						"api",
						"demos",
						"{{lastDemo}}"
					]
				}
			},
			"response": []
		},
		{
			"name": "Should delete demo",
			"event": [
				{
					"listen": "test",
					"script": {
						"exec": [
							"pm.test(\"Status code is 204\", function () {",
							"    pm.response.to.have.status(204);",
							"});",
							"",
							""
						],
						"type": "text/javascript"
					}
				}
			],
			"request": {
				"auth": {
					"type": "bearer",
					"bearer": [
						{
							"key": "token",
							"value": "{{token}}",
							"type": "string"
						}
					]
				},
				"method": "DELETE",
				"header": [],
				"url": {
					"raw": "{{url}}/api/demos/{{lastDemo}}",
					"host": [
						"{{url}}"
					],
					"path": [
						"api",
						"demos",
						"{{lastDemo}}"
					]
				}
			},
			"response": []
		}
	]
}